<?xml version="1.0" encoding="utf-8"?>
<svg xmlns="http://www.w3.org/2000/svg" xmlns:xlink="http://www.w3.org/1999/xlink" style="margin: auto; background: rgb(241, 240, 249); display: block; z-index: 1; position: relative; shape-rendering: auto;" width="1920" height="862" preserveAspectRatio="xMidYMid" viewBox="0 0 1920 862">
<g transform=""><linearGradient id="lg-0.6590519274487807" x1="0" x2="1" y1="0" y2="0">
  <stop stop-color="#ff00ff" offset="0"></stop>
  <stop stop-color="#00ffff" offset="1"></stop>
</linearGradient><path d="M 1420.15 431 C 1420.15 561.697 1178.01 679.11 1053.49 719.284 C 928.963 759.458 681.734 794.615 605.211 689.092 C 528.688 583.569 533.321 282.101 610.669 176.578 C 688.018 71.0548 934.055 87.3953 1058.58 127.57 C 1183.1 167.744 1420.15 300.303 1420.15 431" fill="url(#lg-0.6590519274487807)" opacity="0.16">
  <animate attributeName="d" dur="10s" repeatCount="indefinite" keyTimes="0;0.3333333333333333;0.6666666666666666;1" calcmod="spline" keySplines="0.3 0.1 0.7 0.9;0.3 0.1 0.7 0.9;0.3 0.1 0.7 0.9" begin="-4s" values="M 1454 431 C 1454 565 1197 727 1070 768 C 943 809 671 807 592 699 C 513 591 568 311 647 203 C 726 95 958 4 1085 45 C 1212 86 1454 297 1454 431;M 1413 431 C 1413 561 1174 669 1050 709 C 926 749 684 792 608 687 C 532 582 526 276 603 171 C 680 66 929 105 1053 145 C 1177 185 1413 301 1413 431;M 1462 431 C 1462 562 1172 663 1048 703 C 924 743 672 802 595 696 C 518 590 519 272 596 166 C 673 60 956 20 1080 60 C 1204 100 1462 300 1462 431;M 1454 431 C 1454 565 1197 727 1070 768 C 943 809 671 807 592 699 C 513 591 568 311 647 203 C 726 95 958 4 1085 45 C 1212 86 1454 297 1454 431"></animate>
</path><path d="M 1395.33 431 C 1395.33 555.651 1174.44 686.238 1055.79 725.064 C 937.137 763.89 731.615 750.908 658.615 650.083 C 585.615 549.257 525.898 270.064 598.724 169.238 C 671.55 68.4124 955.734 40.1923 1074.39 79.018 C 1193.04 117.844 1395.33 306.349 1395.33 431" fill="url(#lg-0.6590519274487807)" opacity="0.16">
  <animate attributeName="d" dur="10s" repeatCount="indefinite" keyTimes="0;0.3333333333333333;0.6666666666666666;1" calcmod="spline" keySplines="0.3 0.1 0.7 0.9;0.3 0.1 0.7 0.9;0.3 0.1 0.7 0.9" begin="-4s" values="M 1359 431 C 1359 554 1186 730 1069 768 C 952 806 744 741 671 641 C 598 541 587 313 659 213 C 731 113 945 79 1062 117 C 1179 155 1359 308 1359 431;M 1403 431 C 1403 556 1172 677 1053 716 C 934 755 729 753 656 652 C 583 551 513 261 586 160 C 659 59 958 32 1077 71 C 1196 110 1403 306 1403 431;M 1369 431 C 1369 545 1167 697 1058 732 C 949 767 740 732 673 640 C 606 548 554 276 621 184 C 688 92 931 151 1040 186 C 1149 221 1369 317 1369 431;M 1359 431 C 1359 554 1186 730 1069 768 C 952 806 744 741 671 641 C 598 541 587 313 659 213 C 731 113 945 79 1062 117 C 1179 155 1359 308 1359 431"></animate>
</path><path d="M 1411.65 431 C 1411.65 554.917 1184.52 719.294 1066.61 757.817 C 948.688 796.34 717.67 760.633 644.624 660.064 C 571.579 559.495 565.193 297.597 638.239 197.028 C 711.285 96.4591 934.835 106.047 1052.75 144.57 C 1170.67 183.092 1411.65 307.083 1411.65 431" fill="url(#lg-0.6590519274487807)" opacity="0.16">
  <animate attributeName="d" dur="10s" repeatCount="indefinite" keyTimes="0;0.3333333333333333;0.6666666666666666;1" calcmod="spline" keySplines="0.3 0.1 0.7 0.9;0.3 0.1 0.7 0.9;0.3 0.1 0.7 0.9" begin="-4s" values="M 1410 431 C 1410 564 1187 697 1060 738 C 933 779 664 811 586 703 C 508 595 514 272 592 164 C 670 56 953 21 1080 62 C 1207 103 1410 298 1410 431;M 1412 431 C 1412 553 1184 724 1068 762 C 952 800 729 750 657 651 C 585 552 576 303 648 204 C 720 105 931 124 1047 162 C 1163 200 1412 309 1412 431;M 1325 431 C 1325 546 1160 676 1051 711 C 942 746 735 736 668 643 C 601 550 609 318 677 225 C 745 132 954 79 1063 115 C 1172 151 1325 316 1325 431;M 1410 431 C 1410 564 1187 697 1060 738 C 933 779 664 811 586 703 C 508 595 514 272 592 164 C 670 56 953 21 1080 62 C 1207 103 1410 298 1410 431"></animate>
</path><path d="M 1338.03 431 C 1338.03 544.697 1156.36 667.981 1048.66 703.155 C 940.963 738.33 702.238 758.248 635.715 666.725 C 569.192 575.202 625.34 328.083 691.863 236.56 C 758.385 145.037 955.128 79.1743 1062.83 114.349 C 1170.52 149.523 1338.03 317.303 1338.03 431" fill="url(#lg-0.6590519274487807)" opacity="0.16">
  <animate attributeName="d" dur="10s" repeatCount="indefinite" keyTimes="0;0.3333333333333333;0.6666666666666666;1" calcmod="spline" keySplines="0.3 0.1 0.7 0.9;0.3 0.1 0.7 0.9;0.3 0.1 0.7 0.9" begin="-4s" values="M 1395 431 C 1395 548 1177 720 1066 756 C 955 792 746 731 677 637 C 608 543 608 319 677 225 C 746 131 951 80 1062 116 C 1173 152 1395 314 1395 431;M 1326 431 C 1326 544 1152 657 1045 692 C 938 727 693 764 627 673 C 561 582 629 330 695 239 C 761 148 956 79 1063 114 C 1170 149 1326 318 1326 431;M 1437 431 C 1437 555 1185 723 1067 761 C 949 799 724 755 651 655 C 578 555 530 271 603 171 C 676 71 946 74 1064 112 C 1182 150 1437 307 1437 431;M 1395 431 C 1395 548 1177 720 1066 756 C 955 792 746 731 677 637 C 608 543 608 319 677 225 C 746 131 951 80 1062 116 C 1173 152 1395 314 1395 431"></animate>
</path><path d="M 1369.73 431 C 1369.73 556.257 1172.86 680.514 1053.61 718.991 C 934.349 757.468 728.817 754.697 654.863 653.092 C 580.908 551.486 562.669 297.486 636.624 195.881 C 710.578 94.275 948.642 61.1735 1067.9 99.6506 C 1187.16 138.128 1369.73 305.743 1369.73 431" fill="url(#lg-0.6590519274487807)" opacity="0.16">
  <animate attributeName="d" dur="10s" repeatCount="indefinite" keyTimes="0;0.3333333333333333;0.6666666666666666;1" calcmod="spline" keySplines="0.3 0.1 0.7 0.9;0.3 0.1 0.7 0.9;0.3 0.1 0.7 0.9" begin="-4s" values="M 1359 431 C 1359 548 1158 664 1047 700 C 936 736 709 758 640 663 C 571 568 599 314 668 219 C 737 124 928 152 1039 188 C 1150 224 1359 314 1359 431;M 1372 431 C 1372 558 1176 684 1055 723 C 934 762 733 754 658 651 C 583 548 555 294 630 191 C 705 88 953 42 1074 81 C 1195 120 1372 304 1372 431;M 1458 431 C 1458 566 1190 699 1061 741 C 932 783 682 800 602 691 C 522 582 525 282 605 173 C 685 64 948 28 1077 70 C 1206 112 1458 296 1458 431;M 1359 431 C 1359 548 1158 664 1047 700 C 936 736 709 758 640 663 C 571 568 599 314 668 219 C 737 124 928 152 1039 188 C 1150 224 1359 314 1359 431"></animate>
</path></g>
<style type="text/css">.lded > .content, .lded > .content > .inner { height: 100%; }
.lded > .content > .inner > .viewer { width: 100%; height: 100%; max-width: 100%; overflow: hidden }
.lded > .content > .inner > .panel {
  position: absolute;
  bottom: 50px;
  left: 0;
  right: 0;
  opacity: 0.3;
}
.lded > .content > .inner > .panel:hover { opacity: 1; }
.lded > .content > .inner > .ctrl {
  position: absolute;
  bottom: 13px;
  left: 0;
  right: 0;
  margin: auto;
}
.lded > .content > .inner > .ctrl:hover {
  z-index: 10;
}
#editor > .inner > .title {
  position: absolute;
  bottom: 195px;
  left: 0;
  right: 0;
  z-index: 11;
}
#editor > .inner > .title > a:first-child {
  margin-left: 0!important;
#editor .lded .viewer { border-radius: 0 }</style></svg>