<svg class="lds-curve-bars" width="465px"  height="465px"  xmlns="http://www.w3.org/2000/svg" xmlns:xlink="http://www.w3.org/1999/xlink" viewBox="0 0 100 100" preserveAspectRatio="xMidYMid" style="background: none;"><g transform="translate(50,50)"><circle cx="0" cy="0" r="10" fill="none" stroke="#f7f7f7" stroke-width="2" stroke-dasharray="31.41592653589793 31.41592653589793" transform="rotate(329.632)">
<animateTransform attributeName="transform" type="rotate" values="0 0 0;360 0 0" times="0;1" dur="3.7s" calcMode="spline" keySplines="0.2 0 0.8 1" begin="0" repeatCount="indefinite"></animateTransform>
</circle><circle cx="0" cy="0" r="20" fill="none" stroke="#20169a" stroke-width="2" stroke-dasharray="62.83185307179586 62.83185307179586" transform="rotate(349.484)">
<animateTransform attributeName="transform" type="rotate" values="0 0 0;360 0 0" times="0;1" dur="3.7s" calcMode="spline" keySplines="0.2 0 0.8 1" begin="-0.25" repeatCount="indefinite"></animateTransform>
</circle><circle cx="0" cy="0" r="30" fill="none" stroke="#070e55" stroke-width="2" stroke-dasharray="94.24777960769379 94.24777960769379" transform="rotate(359.94)">
<animateTransform attributeName="transform" type="rotate" values="0 0 0;360 0 0" times="0;1" dur="3.7s" calcMode="spline" keySplines="0.2 0 0.8 1" begin="-0.5" repeatCount="indefinite"></animateTransform>
</circle><circle cx="0" cy="0" r="40" fill="none" stroke="#005fd8" stroke-width="2" stroke-dasharray="125.66370614359172 125.66370614359172" transform="rotate(8.37619)">
<animateTransform attributeName="transform" type="rotate" values="0 0 0;360 0 0" times="0;1" dur="3.7s" calcMode="spline" keySplines="0.2 0 0.8 1" begin="-0.75" repeatCount="indefinite"></animateTransform>
</circle></g></svg>