<svg class="lds-gear-set" width="428px"  height="428px"  xmlns="http://www.w3.org/2000/svg" xmlns:xlink="http://www.w3.org/1999/xlink" viewBox="0 0 100 100" preserveAspectRatio="xMidYMid" style="background: none;"><g transform="translate(50 50)"> <g transform="translate(-17 -17) scale(0.5)"> <g transform="rotate(131.077)">
<animateTransform attributeName="transform" type="rotate" values="0;360" keyTimes="0;1" dur="8.1s" begin="0s" repeatCount="indefinite"></animateTransform><path d="M37.3496987939662 -7 L44.3496987939662 -7 L44.3496987939662 7 L37.3496987939662 7 A38 38 0 0 1 31.359972760794346 21.46047782418268 L31.359972760794346 21.46047782418268 L36.30972022910018 26.410225292488512 L26.410225292488512 36.30972022910018 L21.46047782418268 31.359972760794346 A38 38 0 0 1 7.0000000000000036 37.3496987939662 L7.0000000000000036 37.3496987939662 L7.0000000000000036 44.3496987939662 L-7 44.3496987939662 L-7 37.3496987939662 A38 38 0 0 1 -21.46047782418268 31.35997276079435 L-21.46047782418268 31.35997276079435 L-26.410225292488512 36.30972022910018 L-36.30972022910018 26.410225292488516 L-31.359972760794346 21.460477824182682 A38 38 0 0 1 -37.3496987939662 7.000000000000007 L-37.3496987939662 7.000000000000007 L-44.3496987939662 7.000000000000008 L-44.3496987939662 -6.9999999999999964 L-37.3496987939662 -6.999999999999997 A38 38 0 0 1 -31.35997276079435 -21.460477824182675 L-31.35997276079435 -21.460477824182675 L-36.309720229100186 -26.410225292488505 L-26.410225292488533 -36.309720229100165 L-21.4604778241827 -31.35997276079433 A38 38 0 0 1 -6.999999999999992 -37.3496987939662 L-6.999999999999992 -37.3496987939662 L-6.999999999999993 -44.3496987939662 L6.999999999999978 -44.3496987939662 L6.999999999999979 -37.3496987939662 A38 38 0 0 1 21.460477824182686 -31.359972760794342 L21.460477824182686 -31.359972760794342 L26.41022529248852 -36.30972022910018 L36.309720229100165 -26.410225292488533 L31.35997276079433 -21.4604778241827 A38 38 0 0 1 37.3496987939662 -6.999999999999995 M0 -23A23 23 0 1 0 0 23 A23 23 0 1 0 0 -23" fill="rgba(0, 81, 147, 1)"></path></g></g> <g transform="translate(0 22) scale(0.4)"> <g transform="rotate(206.423)">
<animateTransform attributeName="transform" type="rotate" values="360;0" keyTimes="0;1" dur="8.1s" begin="-0.50625s" repeatCount="indefinite"></animateTransform><path d="M37.3496987939662 -7 L44.3496987939662 -7 L44.3496987939662 7 L37.3496987939662 7 A38 38 0 0 1 31.359972760794346 21.46047782418268 L31.359972760794346 21.46047782418268 L36.30972022910018 26.410225292488512 L26.410225292488512 36.30972022910018 L21.46047782418268 31.359972760794346 A38 38 0 0 1 7.0000000000000036 37.3496987939662 L7.0000000000000036 37.3496987939662 L7.0000000000000036 44.3496987939662 L-7 44.3496987939662 L-7 37.3496987939662 A38 38 0 0 1 -21.46047782418268 31.35997276079435 L-21.46047782418268 31.35997276079435 L-26.410225292488512 36.30972022910018 L-36.30972022910018 26.410225292488516 L-31.359972760794346 21.460477824182682 A38 38 0 0 1 -37.3496987939662 7.000000000000007 L-37.3496987939662 7.000000000000007 L-44.3496987939662 7.000000000000008 L-44.3496987939662 -6.9999999999999964 L-37.3496987939662 -6.999999999999997 A38 38 0 0 1 -31.35997276079435 -21.460477824182675 L-31.35997276079435 -21.460477824182675 L-36.309720229100186 -26.410225292488505 L-26.410225292488533 -36.309720229100165 L-21.4604778241827 -31.35997276079433 A38 38 0 0 1 -6.999999999999992 -37.3496987939662 L-6.999999999999992 -37.3496987939662 L-6.999999999999993 -44.3496987939662 L6.999999999999978 -44.3496987939662 L6.999999999999979 -37.3496987939662 A38 38 0 0 1 21.460477824182686 -31.359972760794342 L21.460477824182686 -31.359972760794342 L26.41022529248852 -36.30972022910018 L36.309720229100165 -26.410225292488533 L31.35997276079433 -21.4604778241827 A38 38 0 0 1 37.3496987939662 -6.999999999999995 M0 -23A23 23 0 1 0 0 23 A23 23 0 1 0 0 -23" fill="rgba(1, 1, 58, 1)"></path></g></g> <g transform="translate(28 4) scale(0.3)"> <g transform="rotate(153.577)">
<animateTransform attributeName="transform" type="rotate" values="0;360" keyTimes="0;1" dur="8.1s" begin="-0.50625s" repeatCount="indefinite"></animateTransform><path d="M37.3496987939662 -7 L44.3496987939662 -7 L44.3496987939662 7 L37.3496987939662 7 A38 38 0 0 1 31.359972760794346 21.46047782418268 L31.359972760794346 21.46047782418268 L36.30972022910018 26.410225292488512 L26.410225292488512 36.30972022910018 L21.46047782418268 31.359972760794346 A38 38 0 0 1 7.0000000000000036 37.3496987939662 L7.0000000000000036 37.3496987939662 L7.0000000000000036 44.3496987939662 L-7 44.3496987939662 L-7 37.3496987939662 A38 38 0 0 1 -21.46047782418268 31.35997276079435 L-21.46047782418268 31.35997276079435 L-26.410225292488512 36.30972022910018 L-36.30972022910018 26.410225292488516 L-31.359972760794346 21.460477824182682 A38 38 0 0 1 -37.3496987939662 7.000000000000007 L-37.3496987939662 7.000000000000007 L-44.3496987939662 7.000000000000008 L-44.3496987939662 -6.9999999999999964 L-37.3496987939662 -6.999999999999997 A38 38 0 0 1 -31.35997276079435 -21.460477824182675 L-31.35997276079435 -21.460477824182675 L-36.309720229100186 -26.410225292488505 L-26.410225292488533 -36.309720229100165 L-21.4604778241827 -31.35997276079433 A38 38 0 0 1 -6.999999999999992 -37.3496987939662 L-6.999999999999992 -37.3496987939662 L-6.999999999999993 -44.3496987939662 L6.999999999999978 -44.3496987939662 L6.999999999999979 -37.3496987939662 A38 38 0 0 1 21.460477824182686 -31.359972760794342 L21.460477824182686 -31.359972760794342 L26.41022529248852 -36.30972022910018 L36.309720229100165 -26.410225292488533 L31.35997276079433 -21.4604778241827 A38 38 0 0 1 37.3496987939662 -6.999999999999995 M0 -23A23 23 0 1 0 0 23 A23 23 0 1 0 0 -23" fill="#005193"></path></g></g></g></svg>